<svg xmlns="http://www.w3.org/2000/svg" width="54" height="68" viewBox="0 0 54 68">
  <metadata><?xpacket begin="﻿" id="W5M0MpCehiHzreSzNTczkc9d"?>
<x:xmpmeta xmlns:x="adobe:ns:meta/" x:xmptk="Adobe XMP Core 5.6-c142 79.160924, 2017/07/13-01:06:39        ">
   <rdf:RDF xmlns:rdf="http://www.w3.org/1999/02/22-rdf-syntax-ns#">
      <rdf:Description rdf:about=""/>
   </rdf:RDF>
</x:xmpmeta>
                                                                                                    
                                                                                                    
                                                                                                    
                                                                                                    
                                                                                                    
                                                                                                    
                                                                                                    
                                                                                                    
                                                                                                    
                                                                                                    
                                                                                                    
                                                                                                    
                                                                                                    
                                                                                                    
                                                                                                    
                                                                                                    
                                                                                                    
                                                                                                    
                                                                                                    
                                                                                                    
                           
<?xpacket end="w"?></metadata>
<defs>
    <style>
      .cls-1 {
        fill-rule: evenodd;
      }
    </style>
  </defs>
  <path id="android-logo" class="cls-1" d="M1299.21,888.5h-28.42a1.415,1.415,0,0,0-1.42,1.417v22.666a7.1,7.1,0,0,0,5.68,6.941v7.225a4.265,4.265,0,0,0,8.53,0v-7.083h2.84v7.083a4.265,4.265,0,0,0,8.53,0v-7.225a7.1,7.1,0,0,0,5.68-6.941V889.918A1.42,1.42,0,0,0,1299.21,888.5Zm-6.77-17.954,2.39-5.573a1.419,1.419,0,1,0-2.61-1.113l-2.39,5.576a15.541,15.541,0,0,0-9.65,0l-2.4-5.576a1.419,1.419,0,1,0-2.61,1.113l2.39,5.573a15.6,15.6,0,0,0-8.19,13.7,1.422,1.422,0,0,0,1.42,1.417h28.42a1.422,1.422,0,0,0,1.42-1.417A15.6,15.6,0,0,0,1292.44,870.547ZM1279.32,880a1.417,1.417,0,1,1,1.42-1.417A1.424,1.424,0,0,1,1279.32,880Zm11.36,0a1.417,1.417,0,1,1,1.43-1.417A1.422,1.422,0,0,1,1290.68,880Zm17.06,8.5a4.268,4.268,0,0,0-4.27,4.25v14.166a4.265,4.265,0,0,0,8.53,0V892.751A4.259,4.259,0,0,0,1307.74,888.5Zm-45.48,0a4.259,4.259,0,0,0-4.26,4.25v14.166a4.265,4.265,0,0,0,8.53,0V892.751A4.268,4.268,0,0,0,1262.26,888.5Z" transform="translate(-1258 -863)"/>
</svg>
