<svg xmlns="http://www.w3.org/2000/svg" width="34" height="34" viewBox="0 0 34 34">
  <metadata><?xpacket begin="﻿" id="W5M0MpCehiHzreSzNTczkc9d"?>
<x:xmpmeta xmlns:x="adobe:ns:meta/" x:xmptk="Adobe XMP Core 5.6-c142 79.160924, 2017/07/13-01:06:39        ">
   <rdf:RDF xmlns:rdf="http://www.w3.org/1999/02/22-rdf-syntax-ns#">
      <rdf:Description rdf:about=""/>
   </rdf:RDF>
</x:xmpmeta>
                                                                                                    
                                                                                                    
                                                                                                    
                                                                                                    
                                                                                                    
                                                                                                    
                                                                                                    
                                                                                                    
                                                                                                    
                                                                                                    
                                                                                                    
                                                                                                    
                                                                                                    
                                                                                                    
                                                                                                    
                                                                                                    
                                                                                                    
                                                                                                    
                                                                                                    
                                                                                                    
                           
<?xpacket end="w"?></metadata>
<defs>
    <style>
      .cls-1 {
        fill-rule: evenodd;
        opacity: 0.5;
      }
    </style>
  </defs>
  <path id="app-store-icon" class="cls-1" d="M1295.03,1035h-20.06a6.982,6.982,0,0,0-6.97,6.97v20.06a6.982,6.982,0,0,0,6.97,6.97h20.06a6.982,6.982,0,0,0,6.97-6.97v-20.06A6.982,6.982,0,0,0,1295.03,1035Zm4.98,27.03a4.993,4.993,0,0,1-4.98,4.98h-20.06a4.993,4.993,0,0,1-4.98-4.98v-20.06a4.993,4.993,0,0,1,4.98-4.98h20.06a4.993,4.993,0,0,1,4.98,4.98v20.06Zm-11.71-18.83a1.632,1.632,0,0,0-.78-1,1.65,1.65,0,0,0-2.26.6l-0.26.45-0.26-.45a1.65,1.65,0,0,0-2.26-.6h0a1.644,1.644,0,0,0-.61,2.26l1.21,2.11-4.48,7.75h-3.26a1.66,1.66,0,1,0,0,3.32h12.61l-1.92-3.32h-3.59l5.69-9.86A1.677,1.677,0,0,0,1288.3,1043.2Zm6.36,11.12h-3.26l-3.72-6.43-1.91,3.32,5.76,9.99a1.636,1.636,0,0,0,1.01.77,1.593,1.593,0,0,0,.43.06,1.745,1.745,0,0,0,.83-0.22,1.676,1.676,0,0,0,.61-2.27l-1.1-1.9h1.35A1.66,1.66,0,0,0,1294.66,1054.32Zm-18.74,4.65-0.33.57a1.662,1.662,0,0,0,2.88,1.66l1.28-2.23h-3.83Z" transform="translate(-1268 -1035)"/>
</svg>
