<?xml version="1.0" encoding="utf-8"?>
<!-- Generator: Adobe Illustrator 22.0.0, SVG Export Plug-In . SVG Version: 6.00 Build 0)  -->
<svg version="1.1" id="Capa_1" xmlns="http://www.w3.org/2000/svg" xmlns:xlink="http://www.w3.org/1999/xlink" x="0px" y="0px"
	 viewBox="0 0 481.4 481.4" style="enable-background:new 0 0 481.4 481.4;" xml:space="preserve">
<style type="text/css">
	.st0{fill:#1EA359;}
</style>
<g>
	<g>
		<path class="st0" d="M291.4,191.3L216.7,266L190.8,240c-4.4-4.4-11.5-4.4-15.9,0c-4.4,4.4-4.4,11.5,0,15.9l33.9,33.9
			c2.1,2.1,4.9,3.3,7.9,3.3c3,0,5.8-1.2,7.9-3.3l82.5-82.5c4.4-4.4,4.4-11.5,0-15.9C302.9,187,295.8,187,291.4,191.3z"/>
		<path class="st0" d="M55.3,320.7c-2.4-5.7-9-8.3-14.7-5.9s-8.3,9-5.9,14.7c1.9,4.2,6,6.8,10.3,6.8c1.5,0,3-0.3,4.5-0.9
			C55.1,332.9,57.7,326.4,55.3,320.7z"/>
		<path class="st0" d="M42.9,281.7c-1.2-6.1-7.2-10-13.2-8.7c-6.1,1.3-10,7.1-8.7,13.2c1.1,5.3,5.8,9,10.9,9c0.7,0,1.5-0.1,2.2-0.3
			C40.3,293.7,44.2,287.7,42.9,281.7z"/>
		<path class="st0" d="M128.1,70.5c2.1,0,4.1-0.6,6-1.7c5.2-3.3,6.8-10.2,3.5-15.4s-10.2-6.8-15.4-3.5c-5.2,3.3-6.8,10.2-3.5,15.4
			C120.7,68.6,124.4,70.5,128.1,70.5z"/>
		<path class="st0" d="M94,97c2.8,0,5.5-1,7.7-3.1c4.5-4.3,4.7-11.4,0.4-15.9c-4.3-4.5-11.4-4.7-15.9-0.4l0,0
			C81.7,82,81.6,89,85.8,93.5C88,95.8,91,97,94,97z"/>
		<path class="st0" d="M27.5,252.2c6.2,0,11.2-5,11.2-11.2c0-0.1,0-0.1,0-0.2c0-0.1,0-0.2,0-0.3c0-6.2-5-11.2-11.2-11.2
			s-11.2,5-11.2,11.2c0,0.1,0,0.2,0,0.3c0,0.1,0,0.2,0,0.3C16.4,247.2,21.4,252.2,27.5,252.2L27.5,252.2z"/>
		<path class="st0" d="M86.1,387.9c-4.3,4.5-4.1,11.6,0.5,15.9c2.1,2.1,4.9,3.1,7.7,3.1c3,0,6-1.2,8.1-3.5
			c4.3-4.5,4.1-11.6-0.5-15.9C97.5,383.2,90.4,383.4,86.1,387.9z"/>
		<path class="st0" d="M29.6,208.5c0.7,0.2,1.5,0.3,2.2,0.3c5.2,0,9.9-3.6,10.9-9c1.2-6.1-2.7-11.9-8.8-13.2
			c-6.1-1.2-11.9,2.7-13.2,8.8l0,0C19.7,201.3,23.6,207.2,29.6,208.5z"/>
		<path class="st0" d="M434.2,179.7L434.2,179.7c1.5,4.8,5.9,7.8,10.6,7.8c1.1,0,2.2-0.2,3.4-0.6c5.9-1.9,9.1-8.1,7.3-14l0,0
			c-1.9-5.9-8.1-9.1-14-7.3C435.7,167.6,432.3,173.8,434.2,179.7z"/>
		<path class="st0" d="M251.3,38.4c0.2,0,0.4,0,0.6,0c6,0,10.9-4.7,11.2-10.6c0.3-6.2-4.5-11.5-10.6-11.8
			c-6.2-0.3-11.4,4.5-11.8,10.6C240.4,32.8,245.1,38,251.3,38.4z"/>
		<path class="st0" d="M291.8,44.5c0.9,0.3,1.9,0.4,2.8,0.4c4.9,0,9.5-3.4,10.8-8.4c1.6-6-2.1-12.1-8-13.6c-6-1.6-12.1,2.1-13.6,8
			C282.2,36.8,285.8,43,291.8,44.5z"/>
		<path class="st0" d="M452.5,207.5c-6.2,0.7-10.6,6.1-10,12.2c0.6,5.8,5.4,10.1,11.1,10.1c0.4,0,0.7,0,1.1-0.1
			c6.2-0.7,10.6-6.2,10-12.3C464.1,211.4,458.6,206.9,452.5,207.5z"/>
		<path class="st0" d="M134.4,412.5c-5.2-3.3-12.1-1.7-15.4,3.6c-3.3,5.2-1.7,12.1,3.6,15.4c1.9,1.1,3.9,1.7,5.9,1.7
			c3.7,0,7.4-1.9,9.5-5.3C141.2,422.7,139.7,415.8,134.4,412.5z"/>
		<path class="st0" d="M208.7,40.5c0.6,0,1.1,0,1.7-0.1c6.1-0.9,10.3-6.6,9.3-12.8c-0.9-6.2-6.6-10.3-12.8-9.3
			c-6.2,0.9-10.4,6.6-9.4,12.8C198.5,36.6,203.3,40.5,208.7,40.5z"/>
		<path class="st0" d="M40.4,166.5c1.4,0.7,2.9,0.9,4.4,0.9c4.3,0,8.5-2.5,10.3-6.8c2.4-5.7-0.2-12.2-5.9-14.7
			c-5.7-2.4-12.3,0.2-14.7,5.9C32,157.6,34.7,164.1,40.4,166.5z"/>
		<path class="st0" d="M59.4,127.7c2,1.3,4.2,2,6.4,2c3.5,0,7-1.7,9.2-4.8c3.5-5,2.3-12-2.8-15.6c-5-3.5-12-2.3-15.6,2.8
			C53.1,117.2,54.3,124.2,59.4,127.7z"/>
		<path class="st0" d="M59.6,353.7c-5,3.5-6.2,10.5-2.7,15.6c2.1,3.1,5.7,4.8,9.1,4.8c2.2,0,4.5-0.7,6.4-2.1
			c5-3.5,6.3-10.5,2.7-15.6C71.7,351.4,64.7,350.2,59.6,353.7z"/>
		<path class="st0" d="M427.9,147.9c1.9,0,3.7-0.5,5.4-1.4c5.4-3,7.4-9.8,4.3-15.2c-3-5.4-9.8-7.4-15.2-4.3c-5.4,3-7.4,9.8-4.3,15.2
			C420.1,145.7,423.9,147.9,427.9,147.9z"/>
		<path class="st0" d="M410.7,370.9c-4.7-4-11.8-3.5-15.8,1.2c-4,4.7-3.5,11.8,1.2,15.8c2.1,1.8,4.7,2.7,7.3,2.7
			c3.2,0,6.3-1.3,8.5-3.9C415.9,382,415.4,374.9,410.7,370.9z"/>
		<path class="st0" d="M403,112.4c2.6,0,5.2-0.9,7.3-2.7c4.7-4,5.2-11.1,1.2-15.8c-4-4.7-11.1-5.2-15.8-1.2
			c-4.7,4-5.2,11.1-1.2,15.8C396.8,111.1,400,112.4,403,112.4z"/>
		<path class="st0" d="M454.7,250.8c-6.2-0.6-11.7,3.9-12.2,10.1c-0.7,6.2,3.9,11.7,10.1,12.2c0.4,0,0.7,0.1,1.1,0.1
			c5.7,0,10.5-4.3,11.1-10.1C465.4,256.8,460.9,251.3,454.7,250.8z"/>
		<path class="st0" d="M166.9,51.4c1.3,0,2.6-0.2,3.9-0.7c5.8-2.1,8.8-8.6,6.6-14.4s-8.6-8.8-14.4-6.6s-8.8,8.6-6.6,14.4
			C158,48.6,162.3,51.4,166.9,51.4z"/>
		<path class="st0" d="M433.4,334.1c-5.4-3-12.2-1-15.2,4.4c-3,5.4-1,12.2,4.4,15.2c1.7,0.9,3.5,1.4,5.4,1.4c3.9,0,7.7-2.1,9.8-5.8
			C440.8,343.9,438.9,337.1,433.4,334.1z"/>
		<path class="st0" d="M448.4,293.6c-5.9-1.9-12.1,1.4-14,7.4c-1.9,5.9,1.5,12.1,7.4,14c1.1,0.4,2.2,0.5,3.4,0.5
			c4.8,0,9.2-3.1,10.7-7.8C457.6,301.6,454.2,295.3,448.4,293.6z"/>
		<path class="st0" d="M365.3,400.4L365.3,400.4c-4.8,3.8-5.8,10.8-2,15.7c2.2,2.9,5.5,4.3,8.9,4.3c2.4,0,4.8-0.7,6.9-2.3
			c4.8-3.8,5.8-10.8,2-15.7C377.1,397.5,370.1,396.6,365.3,400.4z"/>
		<path class="st0" d="M251.8,442.6c-6.2,0.4-10.9,5.6-10.6,11.8c0.3,6,5.2,10.6,11.2,10.6c0.2,0,0.4,0,0.6,0
			c6.2-0.3,10.9-5.6,10.6-11.8C263.2,447.1,257.9,442.3,251.8,442.6z"/>
		<path class="st0" d="M210.8,440.7c-6.1-0.9-11.8,3.3-12.7,9.4c-0.9,6.1,3.3,11.8,9.4,12.7c0.6,0.1,1.1,0.1,1.7,0.1
			c5.4,0,10.3-4,11-9.5C221.2,447.3,216.9,441.6,210.8,440.7z"/>
		<path class="st0" d="M171.2,430.5c-5.8-2.1-12.2,0.8-14.4,6.6c-2.1,5.8,0.8,12.2,6.6,14.4l0,0c1.3,0.5,2.6,0.7,3.8,0.7
			c4.6,0,8.9-2.8,10.5-7.4C179.9,439.1,177,432.6,171.2,430.5z"/>
		<path class="st0" d="M292.1,436.4c-6,1.6-9.6,7.6-8,13.6c1.3,5,5.9,8.4,10.8,8.4c0.9,0,1.9-0.1,2.8-0.4c6-1.6,9.6-7.6,8-13.6
			C304.3,438.4,298.2,434.9,292.1,436.4z"/>
		<path class="st0" d="M330.6,422.1c-5.6,2.7-7.8,9.4-5.1,15c2,3.9,5.9,6.2,10.1,6.2c1.7,0,3.4-0.4,4.9-1.1c5.6-2.7,7.8-9.4,5.1-15
			C342.8,421.6,336.1,419.4,330.6,422.1z"/>
		<path class="st0" d="M330.1,58.7c1.6,0.7,3.3,1.1,4.9,1.1c4.1,0,8.1-2.3,10.1-6.2c2.7-5.6,0.5-12.2-5.1-15l0,0
			c-5.6-2.7-12.2-0.5-15,5.1C322.3,49.2,324.6,55.9,330.1,58.7z"/>
		<path class="st0" d="M364.9,80.4c2.1,1.6,4.5,2.3,6.8,2.3c3.4,0,6.6-1.5,8.9-4.4c3.8-4.8,2.9-11.9-2-15.7
			c-4.8-3.8-11.9-2.9-15.7,2C359.1,69.5,360,76.5,364.9,80.4z"/>
	</g>
</g>
</svg>
