<svg xmlns="http://www.w3.org/2000/svg" width="70.857" height="64" viewBox="0 0 70.857 64">
  <g id="news-icon" transform="translate(0 -24)">
    <path id="Path_16" data-name="Path 16" d="M139.077,51.748,131.429,44.4V35.429a5.721,5.721,0,0,0-5.714-5.714h-9.586l-5.623-5.4a1.142,1.142,0,0,0-1.581,0l-5.623,5.4H89.143a5.721,5.721,0,0,0-5.714,5.714V40a1.143,1.143,0,0,0,1.143,1.143H88V44.4l-7.648,7.343a1.129,1.129,0,0,0-.352.824V86.858A1.143,1.143,0,0,0,81.143,88h57.143a1.143,1.143,0,0,0,1.143-1.143V52.572a1.133,1.133,0,0,0-.354-.821Zm-7.648-4.175,4.017,3.856h-4.017Zm0,6.142h3.314L131.429,56.1ZM122.286,40V35.429a3.429,3.429,0,1,1,6.857,0V57.747L109.714,71.735,90.286,57.747v-16.6h30.857A1.143,1.143,0,0,0,122.286,40ZM109.714,26.727l3.113,2.987H106.6Zm-24,12.13V35.429A3.429,3.429,0,0,1,89.143,32h32.03A5.657,5.657,0,0,0,120,35.429v3.429ZM88,47.573v3.856H83.983Zm0,6.142V56.1l-3.314-2.386ZM82.286,54.8l22.1,15.913-22.1,14.06ZM85.07,85.715l21.317-13.56,2.661,1.916a1.143,1.143,0,0,0,1.335,0l2.661-1.916,21.317,13.56Zm52.073-.939-22.1-14.058,22.1-15.915Z" transform="translate(-68.571 0)" fill="#fff"/>
    <path id="Path_17" data-name="Path 17" d="M200,216h22.857v2.286H200Z" transform="translate(-171.428 -164.571)" fill="#fff"/>
    <path id="Path_18" data-name="Path 18" d="M200,184h22.857v2.286H200Z" transform="translate(-171.428 -137.143)" fill="#fff"/>
    <path id="Path_19" data-name="Path 19" d="M200,248h22.857v2.286H200Z" transform="translate(-171.428 -192)" fill="#fff"/>
    <path id="Path_20" data-name="Path 20" d="M0,128H11.429v2.286H0Z" transform="translate(0 -89.143)" fill="#fff"/>
    <path id="Path_21" data-name="Path 21" d="M24,160H36.571v2.286H24Z" transform="translate(-20.571 -116.571)" fill="#fff"/>
  </g>
</svg>
