<svg xmlns="http://www.w3.org/2000/svg" width="23.031" height="27.125" viewBox="0 0 23.031 27.125">
  <metadata><?xpacket begin="﻿" id="W5M0MpCehiHzreSzNTczkc9d"?>
<x:xmpmeta xmlns:x="adobe:ns:meta/" x:xmptk="Adobe XMP Core 5.6-c142 79.160924, 2017/07/13-01:06:39        ">
   <rdf:RDF xmlns:rdf="http://www.w3.org/1999/02/22-rdf-syntax-ns#">
      <rdf:Description rdf:about=""/>
   </rdf:RDF>
</x:xmpmeta>
                                                                                                    
                                                                                                    
                                                                                                    
                                                                                                    
                                                                                                    
                                                                                                    
                                                                                                    
                                                                                                    
                                                                                                    
                                                                                                    
                                                                                                    
                                                                                                    
                                                                                                    
                                                                                                    
                                                                                                    
                                                                                                    
                                                                                                    
                                                                                                    
                                                                                                    
                                                                                                    
                           
<?xpacket end="w"?></metadata>
<defs>
    <style>
      .cls-1 {
        fill: #48465b;
        fill-rule: evenodd;
      }
    </style>
  </defs>
  <path id="out-of-stock" class="cls-1" d="M800.589,609.173l-5.769-2.118a5.321,5.321,0,0,0-3.475-6.872,5.771,5.771,0,0,0-7.251,3.294,5.123,5.123,0,0,0,0,3.578l-5.769,2.118a0.59,0.59,0,0,0-.4.548v12.684a0.59,0.59,0,0,0,.4.548l10.907,4.007a0.63,0.63,0,0,0,.224.04,0.617,0.617,0,0,0,.221-0.044l0,0,10.907-4.007a0.587,0.587,0,0,0,.395-0.548V609.721a0.589,0.589,0,0,0-.395-0.548h0Zm-1.942.548-2.013.74-3.337-1.217a5.486,5.486,0,0,0,.984-1.126Zm-6.571.339,2.838,1.034-1.6.588-2.938-1.088A5.866,5.866,0,0,0,792.076,610.06Zm1.931,2.628,2.085-.766v2.451l-0.349-.215a0.646,0.646,0,0,0-.79.089l-0.946.951v-2.51Zm-4.55-11.619a4.218,4.218,0,1,1-4.444,4.212h0A4.338,4.338,0,0,1,789.457,601.069Zm-4.469,7.53-0.831-.307,0.476-.175a5.546,5.546,0,0,0,.355.483h0Zm-2.543.322,9.153,3.391-2.141.786-9.19-3.377ZM779.171,622v-11.42l9.665,3.551v11.421Zm10.907,3.552V614.132l2.688-.988v3.537a0.588,0.588,0,0,0,.392.546,0.645,0.645,0,0,0,.681-0.143l1.661-1.672,0.874,0.538a0.642,0.642,0,0,0,.858-0.175,0.559,0.559,0,0,0,.1-0.318v-3.991l2.412-.885V622Zm-2.249-18.366a0.392,0.392,0,0,1-.27-0.106,0.35,0.35,0,0,1-.112-0.257,0.346,0.346,0,0,1,.112-0.256l3.256-3.086a0.387,0.387,0,0,1,.27-0.106,0.391,0.391,0,0,1,.271.106,0.35,0.35,0,0,1,.112.256,0.354,0.354,0,0,1-.112.257l-3.256,3.086A0.394,0.394,0,0,1,787.829,607.187Zm3.256,0a0.392,0.392,0,0,1-.27-0.106L787.559,604a0.35,0.35,0,0,1-.112-0.257,0.346,0.346,0,0,1,.112-0.256,0.387,0.387,0,0,1,.27-0.106,0.391,0.391,0,0,1,.271.106l3.256,3.086a0.35,0.35,0,0,1,.112.256,0.354,0.354,0,0,1-.112.257,0.4,0.4,0,0,1-.271.106h0Z" transform="translate(-777.938 -599.875)"/>
</svg>
