<svg xmlns="http://www.w3.org/2000/svg" width="23.938" height="24.469" viewBox="0 0 23.938 24.469">
  <metadata><?xpacket begin="﻿" id="W5M0MpCehiHzreSzNTczkc9d"?>
<x:xmpmeta xmlns:x="adobe:ns:meta/" x:xmptk="Adobe XMP Core 5.6-c142 79.160924, 2017/07/13-01:06:39        ">
   <rdf:RDF xmlns:rdf="http://www.w3.org/1999/02/22-rdf-syntax-ns#">
      <rdf:Description rdf:about=""/>
   </rdf:RDF>
</x:xmpmeta>
                                                                                                    
                                                                                                    
                                                                                                    
                                                                                                    
                                                                                                    
                                                                                                    
                                                                                                    
                                                                                                    
                                                                                                    
                                                                                                    
                                                                                                    
                                                                                                    
                                                                                                    
                                                                                                    
                                                                                                    
                                                                                                    
                                                                                                    
                                                                                                    
                                                                                                    
                                                                                                    
                           
<?xpacket end="w"?></metadata>
<defs>
    <style>
      .cls-1 {
        fill: #48465b;
        fill-rule: evenodd;
      }
    </style>
  </defs>
  <path id="p-deal" class="cls-1" d="M760.815,615.067a0.7,0.7,0,0,1,0-.635l0.93-1.869a2.108,2.108,0,0,0-.934-2.824l-1.872-.976a0.717,0.717,0,0,1-.38-0.513l-0.366-2.049a2.162,2.162,0,0,0-2.447-1.746l-2.1.291a0.74,0.74,0,0,1-.615-0.2l-1.522-1.446a2.194,2.194,0,0,0-3.025,0l-1.523,1.446a0.737,0.737,0,0,1-.614.2l-2.1-.292A2.162,2.162,0,0,0,741.8,606.2l-0.366,2.049a0.723,0.723,0,0,1-.38.514l-1.872.975a2.108,2.108,0,0,0-.934,2.824l0.93,1.869a0.7,0.7,0,0,1,0,.635l-0.93,1.869a2.109,2.109,0,0,0,.934,2.825l1.872,0.975a0.719,0.719,0,0,1,.38.513l0.366,2.05a2.154,2.154,0,0,0,2.135,1.767,2.2,2.2,0,0,0,.312-0.022l2.1-.291a0.737,0.737,0,0,1,.614.2l1.523,1.447a2.195,2.195,0,0,0,3.024,0l1.523-1.447a0.743,0.743,0,0,1,.615-0.2l2.1,0.291a2.16,2.16,0,0,0,2.447-1.745l0.366-2.05a0.717,0.717,0,0,1,.38-0.513l1.872-.975a2.109,2.109,0,0,0,.934-2.825Zm-0.679,3.445-1.872.976a2.124,2.124,0,0,0-1.122,1.517l-0.367,2.05a0.73,0.73,0,0,1-.827.59l-2.1-.291a2.186,2.186,0,0,0-1.817.579l-1.523,1.447a0.741,0.741,0,0,1-1.023,0l-1.523-1.447a2.191,2.191,0,0,0-1.817-.579l-2.1.291a0.731,0.731,0,0,1-.828-0.59l-0.366-2.05a2.126,2.126,0,0,0-1.123-1.517l-1.871-.976a0.713,0.713,0,0,1-.317-0.955l0.931-1.869a2.086,2.086,0,0,0,0-1.876l-0.931-1.87a0.713,0.713,0,0,1,.317-0.955l1.871-.975a2.125,2.125,0,0,0,1.123-1.518l0.366-2.049a0.732,0.732,0,0,1,.828-0.591l2.1,0.292a2.188,2.188,0,0,0,1.817-.58l1.523-1.447a0.743,0.743,0,0,1,1.023,0l1.523,1.447a2.187,2.187,0,0,0,1.817.58l2.1-.292a0.731,0.731,0,0,1,.827.591l0.366,2.049a2.125,2.125,0,0,0,1.123,1.518l1.872,0.975a0.713,0.713,0,0,1,.316.955l-0.93,1.87a2.084,2.084,0,0,0,0,1.875l0.93,1.87A0.712,0.712,0,0,1,760.136,618.512Zm-4.88-8.925a0.729,0.729,0,0,0-1.018,0l-9.5,9.326a0.7,0.7,0,0,0,0,1,0.728,0.728,0,0,0,1.017,0l9.5-9.326A0.7,0.7,0,0,0,755.256,609.587Zm-8.136-1.2a2.591,2.591,0,1,0,2.639,2.591A2.618,2.618,0,0,0,747.12,608.391Zm0,3.768a1.178,1.178,0,1,1,1.2-1.178A1.19,1.19,0,0,1,747.12,612.159Zm5.756,3.768a2.591,2.591,0,1,0,2.639,2.591A2.618,2.618,0,0,0,752.876,615.927Zm0,3.768a1.178,1.178,0,1,1,1.2-1.177A1.19,1.19,0,0,1,752.876,619.7Z" transform="translate(-738.031 -602.531)"/>
</svg>
