<svg xmlns="http://www.w3.org/2000/svg" width="107.346" height="17.182" viewBox="0 0 107.346 17.182">
  <g id="rating" transform="translate(-1194 -736)">
    <path id="Icon_ionic-ios-star" data-name="Icon ionic-ios-star" d="M20.051,9.322H13.976l-1.846-5.51a.669.669,0,0,0-1.256,0L9.028,9.322H2.911a.663.663,0,0,0-.661.661.486.486,0,0,0,.012.112.635.635,0,0,0,.277.467L7.533,14.08,5.616,19.652a.663.663,0,0,0,.227.743.639.639,0,0,0,.372.161.81.81,0,0,0,.413-.149L11.5,16.934l4.874,3.473a.774.774,0,0,0,.413.149.593.593,0,0,0,.368-.161.655.655,0,0,0,.227-.743L15.467,14.08l4.952-3.552.12-.1a.693.693,0,0,0,.215-.442A.7.7,0,0,0,20.051,9.322Z" transform="translate(1191.75 732.625)"/>
    <path id="Icon_ionic-ios-star-2" data-name="Icon ionic-ios-star" d="M20.051,9.322H13.976l-1.846-5.51a.669.669,0,0,0-1.256,0L9.028,9.322H2.911a.663.663,0,0,0-.661.661.486.486,0,0,0,.012.112.635.635,0,0,0,.277.467L7.533,14.08,5.616,19.652a.663.663,0,0,0,.227.743.639.639,0,0,0,.372.161.81.81,0,0,0,.413-.149L11.5,16.934l4.874,3.473a.774.774,0,0,0,.413.149.593.593,0,0,0,.368-.161.655.655,0,0,0,.227-.743L15.467,14.08l4.952-3.552.12-.1a.693.693,0,0,0,.215-.442A.7.7,0,0,0,20.051,9.322Z" transform="translate(1213.875 732.625)"/>
    <path id="Icon_ionic-ios-star-3" data-name="Icon ionic-ios-star" d="M20.051,9.322H13.976l-1.846-5.51a.669.669,0,0,0-1.256,0L9.028,9.322H2.911a.663.663,0,0,0-.661.661.486.486,0,0,0,.012.112.635.635,0,0,0,.277.467L7.533,14.08,5.616,19.652a.663.663,0,0,0,.227.743.639.639,0,0,0,.372.161.81.81,0,0,0,.413-.149L11.5,16.934l4.874,3.473a.774.774,0,0,0,.413.149.593.593,0,0,0,.368-.161.655.655,0,0,0,.227-.743L15.467,14.08l4.952-3.552.12-.1a.693.693,0,0,0,.215-.442A.7.7,0,0,0,20.051,9.322Z" transform="translate(1235.999 732.625)"/>
    <path id="Icon_ionic-ios-star-4" data-name="Icon ionic-ios-star" d="M20.051,9.322H13.976l-1.846-5.51a.669.669,0,0,0-1.256,0L9.028,9.322H2.911a.663.663,0,0,0-.661.661.486.486,0,0,0,.012.112.635.635,0,0,0,.277.467L7.533,14.08,5.616,19.652a.663.663,0,0,0,.227.743.639.639,0,0,0,.372.161.81.81,0,0,0,.413-.149L11.5,16.934l4.874,3.473a.774.774,0,0,0,.413.149.593.593,0,0,0,.368-.161.655.655,0,0,0,.227-.743L15.467,14.08l4.952-3.552.12-.1a.693.693,0,0,0,.215-.442A.7.7,0,0,0,20.051,9.322Z" transform="translate(1258.123 732.625)"/>
    <path id="Icon_ionic-ios-star-half" data-name="Icon ionic-ios-star-half" d="M20.051,9.322H13.976l-1.846-5.51a.669.669,0,0,0-1.256,0L9.028,9.322H2.911a.663.663,0,0,0-.661.661.486.486,0,0,0,.012.112.635.635,0,0,0,.277.467L7.533,14.08,5.616,19.652a.663.663,0,0,0,.227.743.639.639,0,0,0,.372.161.81.81,0,0,0,.413-.149L11.5,16.934l4.874,3.473a.774.774,0,0,0,.413.149.593.593,0,0,0,.368-.161.655.655,0,0,0,.227-.743L15.467,14.08l4.952-3.552.12-.1a.693.693,0,0,0,.215-.442A.7.7,0,0,0,20.051,9.322Zm-1.958,1.454-3.3,2.367a1.16,1.16,0,0,0-.421,1.313l1.243,3.622a.166.166,0,0,1-.252.19l-3.2-2.28,0,0a1.54,1.54,0,0,1-.665-1.26V6.072a.081.081,0,0,1,.157-.025h0L12.881,9.69a1.155,1.155,0,0,0,1.095.789h4.019A.165.165,0,0,1,18.093,10.776Z" transform="translate(1280.593 732.625)"/>
  </g>
</svg>
