<svg xmlns="http://www.w3.org/2000/svg" width="7.03" height="6" viewBox="0 0 7.03 6">
  <metadata><?xpacket begin="﻿" id="W5M0MpCehiHzreSzNTczkc9d"?>
<x:xmpmeta xmlns:x="adobe:ns:meta/" x:xmptk="Adobe XMP Core 5.6-c142 79.160924, 2017/07/13-01:06:39        ">
   <rdf:RDF xmlns:rdf="http://www.w3.org/1999/02/22-rdf-syntax-ns#">
      <rdf:Description rdf:about=""/>
   </rdf:RDF>
</x:xmpmeta>
                                                                                                    
                                                                                                    
                                                                                                    
                                                                                                    
                                                                                                    
                                                                                                    
                                                                                                    
                                                                                                    
                                                                                                    
                                                                                                    
                                                                                                    
                                                                                                    
                                                                                                    
                                                                                                    
                                                                                                    
                                                                                                    
                                                                                                    
                                                                                                    
                                                                                                    
                                                                                                    
                           
<?xpacket end="w"?></metadata>
<defs>
    <style>
      .cls-1 {
        fill-rule: evenodd;
      }
    </style>
  </defs>
  <path id="Shape_25_copy_6" data-name="Shape 25 copy 6" class="cls-1" d="M1592.39,91h6.22a0.377,0.377,0,0,1,.33.579c-0.14.23-2.87,4.837-3.1,5.231a0.4,0.4,0,0,1-.68,0c-0.17-.283-2.92-4.908-3.11-5.243A0.377,0.377,0,0,1,1592.39,91Z" transform="translate(-1592 -91)"/>
</svg>
