<?xml version="1.0" encoding="utf-8"?>
<!-- Generator: Adobe Illustrator 22.0.0, SVG Export Plug-In . SVG Version: 6.00 Build 0)  -->
<svg version="1.1" id="Layer_1" xmlns="http://www.w3.org/2000/svg" xmlns:xlink="http://www.w3.org/1999/xlink" x="0px" y="0px"
	 viewBox="0 0 18 18" style="enable-background:new 0 0 18 18;" xml:space="preserve">
<style type="text/css">
	.st0{fill:#FFFFFF;enable-background:new    ;}
</style>
<path id="gift" class="st0" d="M16.4,4.2h-2.1c0.9-1.2,0.6-2.8-0.5-3.7c-0.5-0.3-1-0.5-1.6-0.5c-0.8,0-1.6,0.3-2,1
	C9.7,1.7,9.3,2.5,9,3.3C8.7,2.5,8.3,1.7,7.9,1c-0.5-0.7-1.2-1-2-1C4.4,0,3.2,1.2,3.2,2.6c0,0.6,0.2,1.1,0.5,1.6H1.6
	C0.7,4.2,0,4.9,0,5.8v1.1c0,0.7,0.4,1.3,1.1,1.5v8.1c0,0.9,0.7,1.6,1.6,1.6h12.7c0.9,0,1.6-0.7,1.6-1.6V8.3C17.6,8.1,18,7.5,18,6.9
	V5.8C18,4.9,17.3,4.2,16.4,4.2z M10,3.8c0.8-2,1.1-2.7,2.2-2.7c0.9,0,1.6,0.7,1.6,1.6S13,4.2,12.2,4.2H9.8L10,3.8z M5.8,1.1
	c1.1,0,1.4,0.6,2.2,2.7l0.2,0.5H5.8C5,4.2,4.3,3.5,4.3,2.6C4.3,1.8,5,1.1,5.8,1.1L5.8,1.1z M6.9,16.9H2.6c-0.3,0-0.5-0.2-0.5-0.5v-8
	h4.8V16.9L6.9,16.9z M6.9,7.4H1.6c-0.3,0-0.5-0.2-0.5-0.5V5.8c0-0.3,0.2-0.5,0.5-0.5h5.3V7.4L6.9,7.4z M10.1,16.9H7.9V5.3h2.1V16.9
	L10.1,16.9z M15.9,16.4c0,0.3-0.2,0.5-0.5,0.5h-4.3V8.4h4.8V16.4z M16.9,6.9c0,0.3-0.2,0.5-0.5,0.5h-5.3V5.3h5.3
	c0.3,0,0.5,0.2,0.5,0.5V6.9L16.9,6.9z"/>
</svg>
