<svg xmlns="http://www.w3.org/2000/svg" width="20" height="21" viewBox="0 0 20 21">
  <metadata><?xpacket begin="﻿" id="W5M0MpCehiHzreSzNTczkc9d"?>
<x:xmpmeta xmlns:x="adobe:ns:meta/" x:xmptk="Adobe XMP Core 5.6-c142 79.160924, 2017/07/13-01:06:39        ">
   <rdf:RDF xmlns:rdf="http://www.w3.org/1999/02/22-rdf-syntax-ns#">
      <rdf:Description rdf:about=""/>
   </rdf:RDF>
</x:xmpmeta>
                                                                                                    
                                                                                                    
                                                                                                    
                                                                                                    
                                                                                                    
                                                                                                    
                                                                                                    
                                                                                                    
                                                                                                    
                                                                                                    
                                                                                                    
                                                                                                    
                                                                                                    
                                                                                                    
                                                                                                    
                                                                                                    
                                                                                                    
                                                                                                    
                                                                                                    
                                                                                                    
                           
<?xpacket end="w"?></metadata>
<defs>
    <style>
      .cls-1 {
        fill-rule: evenodd;
        opacity: 0.5;
      }
    </style>
  </defs>
  <path id="rollYOwn" class="cls-1" d="M396.058,301.277c-0.23,0-.449.022-0.679,0.022a7.562,7.562,0,0,0-1.519.114,8.071,8.071,0,0,0-1.485.477,3.609,3.609,0,0,1-1.116.385,0.388,0.388,0,0,0,.138-0.1c0.127-.091.265-0.17,0.391-0.249,0.265-.148.553-0.261,0.829-0.4a5.272,5.272,0,0,0,1.554-1.022,7.408,7.408,0,0,0,1.162-1.884c0.265-.522.541-1.033,0.794-1.555-0.127.124-.288,0.227-0.414,0.329-0.184.136-.357,0.272-0.541,0.409-0.38.272-.76,0.533-1.128,0.805a7.282,7.282,0,0,0-1.968,2.077c-0.161.261-.288,0.534-0.437,0.806a1.8,1.8,0,0,1-.449.613,1.118,1.118,0,0,0,.058-0.227,1.561,1.561,0,0,1,.092-0.249,8.1,8.1,0,0,0,.552-1.521,6.324,6.324,0,0,0,.081-1.68,12.873,12.873,0,0,0-.645-2.951A2,2,0,0,1,391.19,295c-0.127.522-.253,1.055-0.38,1.578a16.592,16.592,0,0,0-.437,2.485,3.947,3.947,0,0,0,.391,2.146,2.006,2.006,0,0,1,.219.919c-0.587-.738-0.886-1.634-1.5-2.372a12.132,12.132,0,0,0-3.1-2.316,4.718,4.718,0,0,1,.84,1.181,8.352,8.352,0,0,0,.783,1.2,8.446,8.446,0,0,0,1.346,1.373,8.578,8.578,0,0,1,1.519,1.1,1.153,1.153,0,0,0-.425-0.113,2.116,2.116,0,0,1-.426-0.148,6.616,6.616,0,0,0-.932-0.374,7.434,7.434,0,0,0-1.727-.261c-0.264-.012-0.541,0-0.805-0.012a3.247,3.247,0,0,1-.564-0.057c0.575,0.239,1.174.636,1.807,0.863a6.4,6.4,0,0,0,2.785.182,2.864,2.864,0,0,0-.783.261,4.2,4.2,0,0,0-.828.386,2.345,2.345,0,0,0-.956.965,13,13,0,0,0,2.866-1.533c-0.069.885-.15,2.52-0.207,2.611a0.873,0.873,0,0,0,.23.057l0.207-2.611a1.188,1.188,0,0,0,.276.25,4.438,4.438,0,0,0,.518.386,3.654,3.654,0,0,0,1.128.465,9.935,9.935,0,0,0,.99.147c-0.115-.113-0.242-0.227-0.369-0.329a4.481,4.481,0,0,0-1.116-.635c-0.2-.08-0.4-0.137-0.6-0.2a3.525,3.525,0,0,0-.668-0.2,8.352,8.352,0,0,0,1.059.057,8.653,8.653,0,0,0,1.082-.159,9.383,9.383,0,0,0,2.071-.647c0.2-.091.391-0.193,0.587-0.272a2.439,2.439,0,0,1,.253-0.114A0.676,0.676,0,0,1,396.058,301.277ZM393.685,316a0.449,0.449,0,0,1-.237-0.067l-2.2-1.352a0.437,0.437,0,0,1-.152-0.594l5.263-9.126a0.452,0.452,0,0,1,.611-0.165,0.44,0.44,0,0,1,.168.6l-3.781,6.555L395,312.866l0.563-.814a0.454,0.454,0,0,1,.622-0.116,0.436,0.436,0,0,1,.128.6l-0.01.015-2.252,3.257a0.448,0.448,0,0,1-.37.193h0Zm-0.128-1.042L394.5,313.6l-1.583-.974-0.826,1.432Zm3.1-3.263a0.453,0.453,0,0,1-.252-0.077,0.438,0.438,0,0,1-.117-0.614l3.151-4.558-1.232-.759a0.437,0.437,0,0,1-.143-0.609,0.446,0.446,0,0,1,.38-0.208,0.459,0.459,0,0,1,.237.067l1.263,0.778,3.283-4.747-2.651-1.631-1.032,1.789L400.8,301.9a0.438,0.438,0,0,1,.143.608,0.449,0.449,0,0,1-.617.141L399.1,301.9l-1.344,2.33a0.449,0.449,0,0,1-.39.223,0.463,0.463,0,0,1-.221-0.057,0.444,0.444,0,0,1-.21-0.267,0.43,0.43,0,0,1,.043-0.336l4.531-7.856,0,0,0,0a0.025,0.025,0,0,0,0-.007,0.062,0.062,0,0,0,.008-0.012l0.012-.017,0.015-.018,0,0,0.013-.014,0.016-.017,0.014-.013,0.02-.017,0.015-.011,0.018-.012,0.018-.012,0.022-.011,0.016-.008,0.021-.01,0.023-.008,0.02-.006,0.016,0,0.008,0h0l0.036-.006,0.029,0h0.059a0.459,0.459,0,0,1,.213.066l3.648,2.246a0.45,0.45,0,0,1,.154.159l0,0.007a0.3,0.3,0,0,1,.016.031,0.05,0.05,0,0,1,0,.013c0,0.01.008,0.019,0.011,0.028s0,0.009,0,.014,0,0.015.006,0.02v0l0,0.011a0.059,0.059,0,0,1,0,.014,0.207,0.207,0,0,1,0,.022v0.022c0,0.01,0,.015,0,0.021v0.02s0,0.012,0,.019v0.02a0.178,0.178,0,0,1,0,.026s0,0.017,0,.017v0c0,0.007,0,.014,0,0.021s0,0.014,0,.014v0l-0.009.024a0.1,0.1,0,0,1-.009.02l-0.007.017a0.361,0.361,0,0,1-.022.039l-0.01.015-8.89,12.858a0.45,0.45,0,0,1-.371.193h0Zm7.075-11.458,1.183-1.711-2.857-1.758-1.039,1.8Z" transform="translate(-386 -295)"/>
</svg>
