<?xml version="1.0" encoding="utf-8"?>
<!-- Generator: Adobe Illustrator 22.0.0, SVG Export Plug-In . SVG Version: 6.00 Build 0)  -->
<svg version="1.1" id="Capa_1" xmlns="http://www.w3.org/2000/svg" xmlns:xlink="http://www.w3.org/1999/xlink" x="0px" y="0px"
	 viewBox="0 0 481.4 481.4" style="enable-background:new 0 0 481.4 481.4;" xml:space="preserve">
<style type="text/css">
	.st0{fill:#FBB217;}
</style>
<g>
	<path class="st0" d="M54.4,316.6c-2.4-5.7-9-8.3-14.7-5.9s-8.3,9-5.9,14.7c1.9,4.2,6,6.8,10.3,6.8c1.5,0,3-0.3,4.5-0.9
		C54.2,328.8,56.8,322.3,54.4,316.6z"/>
	<path class="st0" d="M42.1,277.6c-1.2-6.1-7.2-10-13.2-8.7c-6.1,1.3-10,7.1-8.7,13.2c1.1,5.3,5.8,9,10.9,9c0.7,0,1.5-0.1,2.2-0.3
		C39.5,289.5,43.3,283.5,42.1,277.6z"/>
	<path class="st0" d="M127.2,66.3c2.1,0,4.1-0.6,6-1.7c5.2-3.3,6.8-10.2,3.5-15.4c-3.3-5.2-10.2-6.8-15.4-3.5
		c-5.2,3.3-6.8,10.2-3.5,15.4C119.9,64.5,123.5,66.3,127.2,66.3z"/>
	<path class="st0" d="M93.1,92.8c2.8,0,5.5-1,7.7-3.1c4.5-4.3,4.7-11.4,0.4-15.9c-4.3-4.5-11.4-4.7-15.9-0.4l0,0
		c-4.5,4.3-4.7,11.4-0.4,15.9C87.1,91.6,90.1,92.8,93.1,92.8z"/>
	<path class="st0" d="M26.7,248c6.2,0,11.2-5,11.2-11.2c0-0.1,0-0.1,0-0.2c0-0.1,0-0.2,0-0.3c0-6.2-5-11.2-11.2-11.2
		s-11.2,5-11.2,11.2c0,0.1,0,0.2,0,0.3c0,0.1,0,0.2,0,0.3C15.5,243.1,20.5,248,26.7,248L26.7,248z"/>
	<path class="st0" d="M85.3,383.7c-4.3,4.5-4.1,11.6,0.5,15.9c2.1,2.1,4.9,3.1,7.7,3.1c3,0,6-1.2,8.1-3.5c4.3-4.5,4.1-11.6-0.5-15.9
		C96.6,379.1,89.6,379.2,85.3,383.7z"/>
	<path class="st0" d="M28.7,204.4c0.7,0.2,1.5,0.3,2.2,0.3c5.2,0,9.9-3.6,10.9-9c1.2-6.1-2.7-11.9-8.8-13.2
		c-6.1-1.2-11.9,2.7-13.2,8.8l0,0C18.9,197.2,22.8,203.1,28.7,204.4z"/>
	<path class="st0" d="M433.3,175.5L433.3,175.5c1.5,4.8,5.9,7.8,10.6,7.8c1.1,0,2.2-0.2,3.4-0.6c5.9-1.9,9.1-8.1,7.3-14l0,0
		c-1.9-5.9-8.1-9.1-14-7.3C434.8,163.4,431.5,169.7,433.3,175.5z"/>
	<path class="st0" d="M250.4,34.2c0.2,0,0.4,0,0.6,0c6,0,10.9-4.7,11.2-10.6c0.3-6.2-4.5-11.5-10.6-11.8
		c-6.2-0.3-11.4,4.5-11.8,10.6C239.5,28.6,244.3,33.9,250.4,34.2z"/>
	<path class="st0" d="M290.9,40.3c0.9,0.3,1.9,0.4,2.8,0.4c4.9,0,9.5-3.4,10.8-8.4c1.6-6-2.1-12.1-8-13.6c-6-1.6-12.1,2.1-13.6,8
		C281.3,32.7,285,38.8,290.9,40.3z"/>
	<path class="st0" d="M451.6,203.3c-6.2,0.7-10.6,6.1-10,12.2c0.6,5.8,5.4,10.1,11.1,10.1c0.4,0,0.7,0,1.1-0.1
		c6.2-0.7,10.6-6.2,10-12.3C463.3,207.3,457.8,202.8,451.6,203.3z"/>
	<path class="st0" d="M133.6,408.3c-5.2-3.3-12.1-1.7-15.4,3.6c-3.3,5.2-1.7,12.1,3.6,15.4c1.9,1.1,3.9,1.7,5.9,1.7
		c3.7,0,7.4-1.9,9.5-5.3C140.4,418.5,138.8,411.6,133.6,408.3z"/>
	<path class="st0" d="M207.8,36.4c0.6,0,1.1,0,1.7-0.1c6.1-0.9,10.3-6.6,9.3-12.8s-6.6-10.3-12.8-9.3c-6.2,0.9-10.4,6.6-9.4,12.8
		C197.7,32.5,202.4,36.4,207.8,36.4z"/>
	<path class="st0" d="M39.6,162.4c1.4,0.7,2.9,0.9,4.4,0.9c4.3,0,8.5-2.5,10.3-6.8c2.4-5.7-0.2-12.2-5.9-14.7
		c-5.7-2.4-12.3,0.2-14.7,5.9C31.2,153.4,33.9,160,39.6,162.4z"/>
	<path class="st0" d="M58.5,123.6c2,1.3,4.2,2,6.4,2c3.5,0,7-1.7,9.2-4.8c3.5-5,2.3-12-2.8-15.6c-5-3.5-12-2.3-15.6,2.8
		C52.2,113.1,53.5,120,58.5,123.6z"/>
	<path class="st0" d="M58.8,349.6c-5,3.5-6.2,10.5-2.7,15.6c2.1,3.1,5.7,4.8,9.1,4.8c2.2,0,4.5-0.7,6.4-2.1c5-3.5,6.3-10.5,2.7-15.6
		C70.8,347.2,63.8,346,58.8,349.6z"/>
	<path class="st0" d="M427,143.7c1.9,0,3.7-0.5,5.4-1.4c5.4-3,7.4-9.8,4.3-15.2c-3-5.4-9.8-7.4-15.2-4.3c-5.4,3-7.4,9.8-4.3,15.2
		C419.3,141.6,423.1,143.7,427,143.7z"/>
	<path class="st0" d="M409.8,366.7c-4.7-4-11.8-3.5-15.8,1.2c-4,4.7-3.5,11.8,1.2,15.8c2.1,1.8,4.7,2.7,7.3,2.7
		c3.2,0,6.3-1.3,8.5-3.9C415.1,377.8,414.5,370.8,409.8,366.7z"/>
	<path class="st0" d="M402.2,108.3c2.6,0,5.2-0.9,7.3-2.7c4.7-4,5.2-11.1,1.2-15.8c-4-4.7-11.1-5.2-15.8-1.2
		c-4.7,4-5.2,11.1-1.2,15.8C395.9,107,399.1,108.3,402.2,108.3z"/>
	<path class="st0" d="M453.9,246.6c-6.2-0.6-11.7,3.9-12.2,10.1c-0.7,6.2,3.9,11.7,10.1,12.2c0.4,0,0.7,0.1,1.1,0.1
		c5.7,0,10.5-4.3,11.1-10.1C464.6,252.7,460,247.2,453.9,246.6z"/>
	<path class="st0" d="M166,47.2c1.3,0,2.6-0.2,3.9-0.7c5.8-2.1,8.8-8.6,6.6-14.4c-2.1-5.8-8.6-8.8-14.4-6.6s-8.8,8.6-6.6,14.4
		C157.2,44.4,161.5,47.2,166,47.2z"/>
	<path class="st0" d="M432.6,330c-5.4-3-12.2-1-15.2,4.4c-3,5.4-1,12.2,4.4,15.2c1.7,0.9,3.5,1.4,5.4,1.4c3.9,0,7.7-2.1,9.8-5.8
		C440,339.8,438,333,432.6,330z"/>
	<path class="st0" d="M447.5,289.4c-5.9-1.9-12.1,1.4-14,7.4c-1.9,5.9,1.5,12.1,7.4,14c1.1,0.4,2.2,0.5,3.4,0.5
		c4.8,0,9.2-3.1,10.7-7.8C456.7,297.4,453.4,291.2,447.5,289.4z"/>
	<path class="st0" d="M364.4,396.2L364.4,396.2c-4.8,3.8-5.8,10.8-2,15.7c2.2,2.9,5.5,4.3,8.9,4.3c2.4,0,4.8-0.7,6.9-2.3
		c4.8-3.8,5.8-10.8,2-15.7C376.3,393.3,369.3,392.5,364.4,396.2z"/>
	<path class="st0" d="M250.9,438.5c-6.2,0.4-10.9,5.6-10.6,11.8c0.3,6,5.2,10.6,11.2,10.6c0.2,0,0.4,0,0.6,0
		c6.2-0.3,10.9-5.6,10.6-11.8C262.4,442.9,257.1,438.2,250.9,438.5z"/>
	<path class="st0" d="M210,436.5c-6.1-0.9-11.8,3.3-12.7,9.4c-0.9,6.1,3.3,11.8,9.4,12.7c0.6,0.1,1.1,0.1,1.7,0.1
		c5.4,0,10.3-4,11-9.5C220.3,443.1,216,437.4,210,436.5z"/>
	<path class="st0" d="M170.3,426.3c-5.8-2.1-12.2,0.8-14.4,6.6c-2.1,5.8,0.8,12.2,6.6,14.4l0,0c1.3,0.5,2.6,0.7,3.8,0.7
		c4.6,0,8.9-2.8,10.5-7.4C179.1,434.9,176.1,428.5,170.3,426.3z"/>
	<path class="st0" d="M291.3,432.2c-6,1.6-9.6,7.6-8,13.6c1.3,5,5.9,8.4,10.8,8.4c0.9,0,1.9-0.1,2.8-0.4c6-1.6,9.6-7.6,8-13.6
		C303.4,434.3,297.4,430.7,291.3,432.2z"/>
	<path class="st0" d="M329.7,417.9c-5.6,2.7-7.8,9.4-5.1,15c2,3.9,5.9,6.2,10.1,6.2c1.7,0,3.4-0.4,4.9-1.1c5.6-2.7,7.8-9.4,5.1-15
		C341.9,417.5,335.2,415.2,329.7,417.9z"/>
	<path class="st0" d="M329.3,54.6c1.6,0.7,3.3,1.1,4.9,1.1c4.1,0,8.1-2.3,10.1-6.2c2.7-5.6,0.5-12.2-5.1-15l0,0
		c-5.6-2.7-12.2-0.5-15,5.1C321.4,45.1,323.7,51.8,329.3,54.6z"/>
	<path class="st0" d="M364,76.2c2.1,1.6,4.5,2.3,6.8,2.3c3.4,0,6.6-1.5,8.9-4.4c3.8-4.8,2.9-11.9-2-15.7c-4.8-3.8-11.9-2.9-15.7,2
		C358.3,65.4,359.2,72.4,364,76.2z"/>
</g>
<g>
	<g>
		<path class="st0" d="M180.9,306.5c-11.1,0-21-5.8-26.4-15.5c-5.4-9.7-5.2-21.2,0.7-30.6l58.9-95.4c5.5-9,15.2-14.4,25.7-14.4
			S260,156,265.5,165l43.6,70.5c1.2,2,1.6,4.4,1.1,6.7c-0.5,2.3-1.9,4.2-3.9,5.5c-1.4,0.9-3,1.3-4.6,1.3c-3.1,0-5.9-1.6-7.5-4.2
			l-43.6-70.5c-2.3-3.7-6.3-6-10.7-6c-4.4,0-8.4,2.2-10.7,6l-58.9,95.4c-2.4,4-2.5,8.7-0.3,12.8c2.3,4.1,6.4,6.5,11,6.5h117.8
			c4.3,0,8-2,10.4-5.5c2.4-3.5,2.9-7.9,1.4-11.7c-1.8-4.5,0.4-9.6,4.9-11.5c1-0.4,2.1-0.6,3.3-0.6c3.6,0,6.8,2.2,8.2,5.5
			c3.7,9.3,2.5,19.8-3.1,28.1c-5.7,8.4-14.8,13.2-25,13.2H180.9z"/>
	</g>
	<g>
		<path class="st0" d="M239.8,279.6c-4.9,0-8.8-4-8.8-8.8s4-8.8,8.8-8.8c4.9,0,8.8,4,8.8,8.8S244.7,279.6,239.8,279.6z"/>
	</g>
	<g>
		<path class="st0" d="M239.8,255.8c-4.9,0-8.8-4-8.8-8.8v-50.1c0-4.9,4-8.8,8.8-8.8s8.8,4,8.8,8.8V247
			C248.6,251.8,244.7,255.8,239.8,255.8z"/>
	</g>
</g>
</svg>
